<svg xmlns="http://www.w3.org/2000/svg" width="12.815" height="12.815" viewBox="0 0 12.815 12.815">
  <path id="Icon_material-mode-edit" data-name="Icon material-mode-edit" d="M4.5,14.642v2.67H7.17l7.873-7.873-2.67-2.67ZM17.107,7.374a.709.709,0,0,0,0-1L15.441,4.7a.709.709,0,0,0-1,0l-1.3,1.3,2.67,2.67Z" transform="translate(-4.5 -4.496)" fill="#aa2232"/>
</svg>
