<svg xmlns="http://www.w3.org/2000/svg" width="19.084" height="19.084" viewBox="0 0 19.084 19.084">
  <path id="Icon_awesome-download" data-name="Icon awesome-download" d="M8.051,0h2.982a.892.892,0,0,1,.895.895V7.157H15.2a.744.744,0,0,1,.526,1.271L10.053,14.1a.722.722,0,0,1-1.018,0L3.358,8.428a.744.744,0,0,1,.526-1.271H7.157V.895A.892.892,0,0,1,8.051,0ZM19.084,14.015V18.19a.892.892,0,0,1-.895.895H.895A.892.892,0,0,1,0,18.19V14.015a.892.892,0,0,1,.895-.895H6.363l1.826,1.826a1.91,1.91,0,0,0,2.706,0l1.826-1.826H18.19A.892.892,0,0,1,19.084,14.015ZM14.462,17.3a.745.745,0,1,0-.745.745A.748.748,0,0,0,14.462,17.3Zm2.386,0a.745.745,0,1,0-.745.745A.748.748,0,0,0,16.848,17.3Z" fill="#fff"/>
</svg>
