<svg xmlns="http://www.w3.org/2000/svg" width="9.881" height="15.3" viewBox="0 0 9.881 15.3">
  <path id="Icon_awesome-angle-down" data-name="Icon awesome-angle-down" d="M6.842,9.544l-6.5-6.5a1.143,1.143,0,0,1,0-1.621L1.418.337a1.143,1.143,0,0,1,1.621,0l4.61,4.61L12.26.337a1.143,1.143,0,0,1,1.621,0l1.081,1.081a1.143,1.143,0,0,1,0,1.621l-6.5,6.5A1.137,1.137,0,0,1,6.842,9.544Z" transform="translate(0 15.3) rotate(-90)" fill="#fff"/>
</svg>
