<svg xmlns="http://www.w3.org/2000/svg" width="23.003" height="23" viewBox="0 0 23.003 23">
  <path id="Icon_awesome-upload" data-name="Icon awesome-upload" d="M13.3,17.254H9.7a1.076,1.076,0,0,1-1.078-1.078V8.628H4.686A.9.9,0,0,1,4.053,7.1L10.886.258a.87.87,0,0,1,1.227,0L18.951,7.1a.9.9,0,0,1-.633,1.532h-3.94v7.548A1.076,1.076,0,0,1,13.3,17.254ZM23,16.9v5.032a1.076,1.076,0,0,1-1.078,1.078H1.078A1.076,1.076,0,0,1,0,21.927V16.9a1.076,1.076,0,0,1,1.078-1.078h6.11v.359A2.518,2.518,0,0,0,9.7,18.692H13.3a2.518,2.518,0,0,0,2.516-2.516v-.359h6.11A1.076,1.076,0,0,1,23,16.9Zm-5.571,3.954a.9.9,0,1,0-.9.9A.9.9,0,0,0,17.432,20.849Zm2.875,0a.9.9,0,1,0-.9.9A.9.9,0,0,0,20.308,20.849Z" transform="translate(0 -0.005)" fill="#aa2232"/>
</svg>
