<svg xmlns="http://www.w3.org/2000/svg" width="20.315" height="19.164" viewBox="0 0 20.315 19.164">
  <path id="Icon_ionic-md-arrow-round-back" data-name="Icon ionic-md-arrow-round-back" d="M24.18,14.064H11.825l4.792-4.584a1.91,1.91,0,0,0,0-2.609,1.707,1.707,0,0,0-2.494,0L6.145,14.607a1.758,1.758,0,0,0-.52,1.293v.023a1.758,1.758,0,0,0,.52,1.293l7.973,7.736a1.707,1.707,0,0,0,2.494,0,1.91,1.91,0,0,0,0-2.609l-4.792-4.584H24.174a1.807,1.807,0,0,0,1.767-1.847A1.788,1.788,0,0,0,24.18,14.064Z" transform="translate(-5.625 -6.33)" fill="#8e101f"/>
</svg>
