<svg xmlns="http://www.w3.org/2000/svg" width="19.089" height="12.726" viewBox="0 0 19.089 12.726">
  <path id="Icon_awesome-eye" data-name="Icon awesome-eye" d="M18.973,10.379A10.629,10.629,0,0,0,9.544,4.5,10.631,10.631,0,0,0,.115,10.379a1.072,1.072,0,0,0,0,.967,10.629,10.629,0,0,0,9.429,5.879,10.631,10.631,0,0,0,9.429-5.879A1.072,1.072,0,0,0,18.973,10.379ZM9.544,15.635a4.772,4.772,0,1,1,4.772-4.772A4.772,4.772,0,0,1,9.544,15.635Zm0-7.954a3.159,3.159,0,0,0-.839.126,1.586,1.586,0,0,1-2.217,2.217A3.174,3.174,0,1,0,9.544,7.681Z" transform="translate(0 -4.5)" fill="#aa2232"/>
</svg>
