<svg xmlns="http://www.w3.org/2000/svg" width="17.932" height="17.932" viewBox="0 0 17.932 17.932">
  <path id="Icon_material-gps-fixed" data-name="Icon material-gps-fixed" d="M10.466,7.206a3.26,3.26,0,1,0,3.26,3.26A3.259,3.259,0,0,0,10.466,7.206Zm7.287,2.445a7.331,7.331,0,0,0-6.472-6.472V1.5H9.651V3.179A7.331,7.331,0,0,0,3.179,9.651H1.5v1.63H3.179a7.331,7.331,0,0,0,6.472,6.472v1.679h1.63V17.753a7.331,7.331,0,0,0,6.472-6.472h1.679V9.651Zm-7.287,6.521a5.706,5.706,0,1,1,5.706-5.706A5.7,5.7,0,0,1,10.466,16.172Z" transform="translate(-1.5 -1.5)" fill="#fff"/>
</svg>
