<svg xmlns="http://www.w3.org/2000/svg" width="17.612" height="20.128" viewBox="0 0 17.612 20.128">
  <path id="Icon_awesome-lock" data-name="Icon awesome-lock" d="M15.725,8.806h-.944V5.976a5.976,5.976,0,0,0-11.951,0V8.806H1.887A1.888,1.888,0,0,0,0,10.693v7.548a1.888,1.888,0,0,0,1.887,1.887H15.725a1.888,1.888,0,0,0,1.887-1.887V10.693A1.888,1.888,0,0,0,15.725,8.806Zm-4.089,0H5.976V5.976a2.831,2.831,0,1,1,5.661,0Z" fill="#aa2232"/>
</svg>
