<svg xmlns="http://www.w3.org/2000/svg" width="19.6" height="13.067" viewBox="0 0 19.6 13.067">
  <path id="Icon_awesome-folder-open" data-name="Icon awesome-folder-open" d="M19.487,12.261l-2.464,4.225a2.178,2.178,0,0,1-1.881,1.08H1.532a.817.817,0,0,1-.705-1.228l2.464-4.225a2.178,2.178,0,0,1,1.881-1.08h13.61A.817.817,0,0,1,19.487,12.261ZM5.172,9.944H16.333V8.311A1.633,1.633,0,0,0,14.7,6.678H9.256L7.078,4.5H1.633A1.633,1.633,0,0,0,0,6.133v9.461l2.351-4.029A3.278,3.278,0,0,1,5.172,9.944Z" transform="translate(0 -4.5)" fill="#2b2b2b"/>
</svg>
