<svg xmlns="http://www.w3.org/2000/svg" width="15.3" height="9.881" viewBox="0 0 15.3 9.881">
  <path id="Icon_awesome-angle-down" data-name="Icon awesome-angle-down" d="M6.838,20.284l-6.5-6.5a1.143,1.143,0,0,1,0-1.621l1.081-1.081a1.143,1.143,0,0,1,1.621,0l4.61,4.61,4.61-4.61a1.143,1.143,0,0,1,1.621,0l1.081,1.081a1.143,1.143,0,0,1,0,1.621l-6.5,6.5A1.137,1.137,0,0,1,6.838,20.284Z" transform="translate(0.004 -10.74)" fill="#9f9f9f"/>
</svg>
